{
    "elitism_rate" : 0.10,
    "add_neuron_rate" : 0.00,
    "remove_neuron_rate" : 0.00,
    "add_connection_rate" : 0.00,
    "remove_connection_rate" : 0.00,
    "mutation_roulette" : {
        "create_neuron" : 10,
        "create_connection" : 20,
        "remove_neuron" : 12,
        "remove_connection" : 22,
        "none" : 200
    }
}