{
    "layouts": [
        [
            {
                "type": "uniform",
                "stages": [ "vertex_shader" ]
            }
        ],
        [
        ],
        [
            {
                "type": "uniform_dynamic",
                "stages": [ "vertex_shader" ]
            }
        ]
    ]
}
