# Blender v2.73 (sub 0) OBJ File: ''
# www.blender.org
mtllib untitled.mtl
o cube
v 1.000000 -0.977202 -1.000000
v 1.000000 -0.977202 1.000000
v -1.000000 -0.977202 -1.000000
v 1.000000 1.022798 -0.999999
v -1.000000 1.022798 -1.000000
v 0.999999 1.022798 1.000001
v -1.000000 -0.977202 1.000000
v -1.000000 1.022798 1.000000
vt 0.375624 0.500625
vt 0.624375 0.500624
vt 0.375625 0.749375
vt 0.375625 0.251875
vt 0.375624 0.003126
vt 0.624374 0.251874
vt 0.873126 0.749375
vt 0.873126 0.998126
vt 0.624375 0.749375
vt 0.624375 0.998126
vt 0.126874 0.998126
vt 0.126874 0.749375
vt 0.375625 0.998126
vt 0.624373 0.003126
vn 0.000000 -1.000000 -0.000000
vn -0.000000 1.000000 0.000000
vn 1.000000 0.000000 0.000000
vn 0.000000 -0.000000 1.000000
vn -1.000000 0.000000 0.000000
vn 0.000000 0.000000 -1.000000
usemtl None
s off
f 1/1/1 2/2/1 3/3/1
f 4/4/2 5/5/2 6/6/2
f 1/1/3 4/4/3 2/2/3
f 2/7/4 6/8/4 7/9/4
f 7/9/5 8/10/5 3/3/5
f 4/11/6 1/12/6 5/13/6
f 2/2/1 7/9/1 3/3/1
f 5/5/2 8/14/2 6/6/2
f 4/4/3 6/6/3 2/2/3
f 6/8/4 8/10/4 7/9/4
f 8/10/5 5/13/5 3/3/5
f 1/12/6 3/3/6 5/13/6
